<?xml version="1.0" encoding="utf-8"?>
<!-- Generator: Adobe Illustrator 18.1.0, SVG Export Plug-In . SVG Version: 6.00 Build 0)  -->
<svg version="1.2" baseProfile="tiny" id="Layer_1" xmlns="http://www.w3.org/2000/svg" xmlns:xlink="http://www.w3.org/1999/xlink"
	 x="0px" y="0px" viewBox="0 0 177.7 67.9" xml:space="preserve">
<g>
	<g>
		<g>
			<path fill="#D1D3D4" d="M0.1,39l1-2.4c1.7,0.7,3.5,1.1,5.5,1.1c2.3,0,4.4-0.6,6.2-1.9c1.8-1.3,3.4-3.2,4.9-5.8
				c0.5-0.9,0.9-1.8,1.4-2.9c0.4-1.1,1-2.6,1.7-4.6c0.6-1.6,1.1-3.4,1.6-5.3c0.5-1.9,1-3.6,1.3-5.2c0.4-1.6,0.7-3.3,1.1-5.3l2.9-1.3
				l-0.2,0L27,5.2c-4.1-0.5-8-0.8-11.7-0.8c-1.9,0-3.5,0.1-4.8,0.4C9.1,5.1,8,5.5,7.1,6c-1.3,0.8-1.9,1.8-1.9,3c0,2.5,3.2,4,9.5,4.3
				l-1.8,1.9c-1.7-0.1-3.2-0.4-4.5-0.9c-1.3-0.5-2.3-1.2-2.9-2.1s-1-1.8-1-2.9c0-2.2,1.4-4,4.2-5.3c2.3-1.1,5.8-1.7,10.3-1.7
				c1.2,0,2.8,0.1,4.7,0.2c1.9,0.1,3.9,0.3,6,0.6c2.1,0.2,3.8,0.5,5.1,0.7l0.5,0.1L34,6.3l-0.5-0.1C32,5.9,30.1,5.6,28,5.3l-0.2,0
				l-0.1,0.4l-0.1,0.4c-1.4,6.5-2.9,11.8-4.4,16c-1.5,4.2-3.2,7.5-5.1,10c-1.9,2.5-4.1,4.3-6.6,5.5c-2.5,1.1-5.4,1.7-8.8,1.7
				C1.9,39.2,1,39.1,0.1,39z"/>
			<path fill="#D1D3D4" d="M2.8,39.3c-0.9,0-1.8-0.1-2.7-0.2c0,0-0.1,0-0.1-0.1C0,39,0,39,0,39l1-2.4c0,0,0-0.1,0.1-0.1
				c0,0,0.1,0,0.1,0c1.7,0.7,3.5,1.1,5.5,1.1c2.3,0,4.4-0.6,6.2-1.9c1.8-1.2,3.4-3.2,4.8-5.7c0.5-0.9,0.9-1.8,1.4-2.9
				c0.4-1.1,1-2.7,1.7-4.6c0.6-1.6,1.1-3.4,1.6-5.3c0.5-1.9,1-3.7,1.3-5.2c0.4-1.6,0.7-3.4,1.1-5.3c0,0,0-0.1,0.1-0.1l2.5-1.1
				l-0.3,0c-4-0.5-8-0.8-11.7-0.8c-1.9,0-3.5,0.1-4.8,0.4C9.2,5.2,8.1,5.6,7.2,6.1C6,6.9,5.4,7.9,5.4,9.1c0,2.4,3.1,3.8,9.3,4.2
				c0,0,0.1,0,0.1,0.1s0,0.1,0,0.1l-1.8,1.9c0,0-0.1,0-0.1,0c-1.7-0.1-3.2-0.4-4.5-0.9c-1.3-0.5-2.3-1.2-3-2.1
				c-0.7-0.9-1.1-1.9-1.1-3c0-2.2,1.4-4.1,4.2-5.4c2.4-1.1,5.8-1.7,10.4-1.7c1.2,0,2.8,0.1,4.7,0.2c1.9,0.1,3.9,0.3,6,0.6
				c2.1,0.2,3.8,0.5,5.1,0.7l0.5,0.1c0,0,0.1,0,0.1,0.1c0,0,0,0.1,0,0.1l-1.2,2.4c0,0-0.1,0.1-0.1,0.1l-0.5-0.1
				c-1.6-0.3-3.4-0.6-5.5-0.9l-0.1,0l-0.1,0.6c-1.4,6.4-2.9,11.8-4.4,16c-1.5,4.2-3.2,7.6-5.1,10.1c-1.9,2.5-4.1,4.4-6.6,5.5
				C9.2,38.8,6.2,39.3,2.8,39.3z M0.3,38.9C1.1,39,2,39.1,2.8,39.1c3.4,0,6.3-0.6,8.8-1.7c2.5-1.1,4.7-2.9,6.5-5.4
				c1.9-2.5,3.6-5.8,5.1-10c1.5-4.2,3-9.5,4.4-16l0.1-0.6l-2.7,1.2c-0.3,1.9-0.7,3.6-1,5.2c-0.4,1.6-0.8,3.3-1.3,5.2
				c-0.5,1.9-1.1,3.7-1.6,5.3c-0.7,2-1.2,3.5-1.7,4.6c-0.4,1.1-0.9,2.1-1.4,3c-1.4,2.6-3.1,4.6-4.9,5.8c-1.8,1.3-4,1.9-6.3,1.9
				c-2,0-3.8-0.3-5.5-1L0.3,38.9z M18.9,2.5c-4.5,0-8,0.6-10.3,1.7C5.9,5.4,4.5,7.2,4.5,9.3c0,1.1,0.3,2,1,2.8
				c0.7,0.8,1.6,1.5,2.9,2c1.2,0.5,2.7,0.8,4.4,0.9l1.6-1.7c-6.2-0.4-9.3-1.9-9.3-4.4c0-1.3,0.7-2.3,1.9-3.1C8,5.4,9.1,5,10.4,4.7
				c1.3-0.3,2.9-0.4,4.9-0.4c3.7,0,7.7,0.3,11.7,0.8l0.7,0.1c0,0,0,0,0,0c0,0,0.1,0,0.1,0l0.2,0c2.1,0.3,3.9,0.6,5.5,0.9l0.4,0.1
				L35,4l-0.3-0.1c-1.4-0.2-3.1-0.5-5.1-0.7c-2-0.2-4-0.4-6-0.6C21.7,2.5,20.1,2.5,18.9,2.5z"/>
		</g>
		<g>
			<path fill="#D1D3D4" d="M30,38.2l7.1-36.7L40,0.1l-7.4,32.7c0.1-0.1,0.1-0.2,0.1-0.2l0.6-1.4c1.1-2.4,2.4-4.5,4-6.2
				c1.5-1.6,2.9-2.4,4.2-2.4c0.7,0,1.2,0.2,1.6,0.7c0.4,0.4,0.6,1,0.6,1.8c0,0.4-0.1,1-0.3,1.7l-0.3,1.1l-0.8,3.3l-0.2,1
				c-0.3,1.1-0.4,1.9-0.4,2.5c0,0.6,0.1,1,0.3,1.4c0.2,0.3,0.5,0.5,0.8,0.5c0.6,0,1.4-0.7,2.7-2l0.4,0.4l-0.2,0.3
				c-1,1.2-1.8,2-2.3,2.4c-0.5,0.4-0.9,0.6-1.3,0.6c-0.6,0-1-0.3-1.4-0.9c-0.4-0.6-0.6-1.3-0.6-2.1c0-0.5,0.1-1.3,0.3-2.6l1-5.7
				c0.2-0.8,0.2-1.5,0.2-1.9c0-0.4-0.1-0.7-0.3-0.9C41,24.1,40.7,24,40.4,24c-0.7,0-1.4,0.4-2.3,1.2c-0.9,0.8-1.7,1.9-2.6,3.2
				c-0.9,1.4-1.6,2.9-2.3,4.4c-0.6,1.6-1.1,3.2-1.5,4.8L30,38.2z"/>
			<path fill="#D1D3D4" d="M41.9,38.4c-0.6,0-1.1-0.3-1.5-0.9c-0.4-0.6-0.6-1.3-0.6-2.1c0-0.5,0.1-1.3,0.4-2.6l1-5.7
				c0.2-0.8,0.2-1.5,0.2-1.9c0-0.3-0.1-0.6-0.3-0.8c-0.2-0.2-0.4-0.3-0.7-0.3c-0.6,0-1.4,0.4-2.2,1.1c-0.8,0.8-1.7,1.8-2.6,3.2
				c-0.9,1.4-1.6,2.8-2.3,4.4c-0.6,1.6-1.1,3.2-1.4,4.8c0,0,0,0.1-0.1,0.1L30,38.4c0,0-0.1,0-0.1,0c0,0,0-0.1,0-0.1L37,1.5
				c0,0,0-0.1,0.1-0.1L39.9,0c0,0,0.1,0,0.1,0c0,0,0.1,0.1,0,0.1l-7.2,31.5l0.2-0.5c1.1-2.4,2.4-4.5,4-6.3c1.5-1.6,3-2.5,4.3-2.5
				c0.7,0,1.3,0.2,1.7,0.7c0.4,0.5,0.7,1.1,0.7,1.8c0,0.4-0.1,1-0.3,1.8l-0.3,1.1l-0.8,3.3l-0.2,1c-0.3,1.1-0.4,1.9-0.4,2.4
				c0,0.5,0.1,1,0.3,1.3c0.2,0.3,0.4,0.5,0.7,0.5c0.4,0,1.1-0.3,2.6-1.9c0,0,0.1,0,0.1,0c0,0,0.1,0,0.1,0l0.4,0.4c0,0,0.1,0.1,0,0.2
				l-0.2,0.3c-1,1.2-1.8,2-2.3,2.4C42.8,38.2,42.3,38.4,41.9,38.4z M40.4,23.9c0.4,0,0.7,0.1,0.9,0.3c0.2,0.2,0.3,0.5,0.3,0.9
				c0,0.4-0.1,1-0.2,1.9l-1,5.7C40.1,34,40,34.8,40,35.3c0,0.8,0.2,1.4,0.6,2c0.4,0.6,0.8,0.8,1.3,0.8c0.4,0,0.8-0.2,1.2-0.6
				c0.5-0.4,1.2-1.2,2.3-2.4l0.2-0.2l-0.2-0.2c-1.2,1.3-2.1,1.9-2.7,1.9c-0.4,0-0.7-0.2-0.9-0.6c-0.2-0.4-0.3-0.9-0.3-1.4
				c0-0.6,0.1-1.4,0.4-2.5l0.2-1l0.8-3.3l0.3-1.1c0.2-0.7,0.3-1.3,0.3-1.7c0-0.7-0.2-1.3-0.6-1.7c-0.4-0.4-0.9-0.6-1.5-0.6
				c-1.2,0-2.6,0.8-4.1,2.4c-1.6,1.7-2.9,3.8-4,6.2l-0.6,1.4c0,0,0,0.1-0.1,0.3c0,0.1-0.1,0.1-0.2,0.1c-0.1,0-0.1-0.1-0.1-0.1
				l7.4-32.5l-2.5,1.2l-7.1,36.5l1.5-0.5c0.3-1.6,0.8-3.2,1.4-4.8c0.6-1.6,1.4-3.1,2.3-4.4c0.9-1.4,1.8-2.5,2.6-3.3
				C38.9,24.3,39.7,23.9,40.4,23.9z"/>
		</g>
		<g>
			<path fill="#D1D3D4" d="M58.2,33.8l0.5,0.4c-1.1,1.5-2.2,2.5-3.2,3.2c-1.1,0.7-2.2,1-3.4,1c-1.5,0-2.6-0.5-3.5-1.5
				s-1.3-2.2-1.3-3.8c0-1.6,0.4-3.2,1.3-4.9c0.8-1.7,1.9-3,3.2-4.1c1.3-1.1,2.5-1.6,3.8-1.6c0.7,0,1.3,0.2,1.8,0.6
				c0.5,0.4,0.7,1,0.7,1.7c0,1.4-0.8,2.8-2.3,4.1c-1.5,1.4-3.6,2.6-6.1,3.5c0,0.1,0,0.3,0,0.5c0,1.2,0.3,2.2,1,3
				c0.7,0.8,1.6,1.2,2.6,1.2c0.8,0,1.7-0.3,2.4-0.8C56.5,35.8,57.3,34.9,58.2,33.8z M49.6,31.8c1.9-0.9,3.4-1.8,4.5-2.9
				c0.7-0.7,1.3-1.5,1.7-2.3c0.4-0.8,0.6-1.6,0.6-2.2c0-0.8-0.4-1.3-1.2-1.3c-1.2,0-2.3,0.9-3.5,2.8C50.5,27.7,49.8,29.6,49.6,31.8z
				"/>
			<path fill="#D1D3D4" d="M52,38.5c-1.5,0-2.7-0.5-3.6-1.5c-0.9-1-1.3-2.3-1.3-3.9c0-1.6,0.4-3.3,1.3-5c0.9-1.7,1.9-3.1,3.2-4.1
				c1.3-1.1,2.6-1.7,3.9-1.7c0.8,0,1.4,0.2,1.9,0.7c0.5,0.5,0.8,1,0.8,1.8c0,1.4-0.8,2.8-2.3,4.2c-1.5,1.4-3.6,2.6-6.1,3.5
				c0,0.1,0,0.3,0,0.4c0,1.2,0.3,2.2,1,2.9c0.7,0.7,1.5,1.1,2.5,1.1c0.8,0,1.6-0.3,2.4-0.8c0.8-0.5,1.6-1.3,2.5-2.5c0,0,0.1,0,0.1,0
				c0,0,0.1,0,0.1,0l0.5,0.4c0.1,0,0.1,0.1,0,0.2c-1.1,1.5-2.2,2.6-3.3,3.2C54.4,38.2,53.3,38.5,52,38.5z M55.5,22.6
				c-1.2,0-2.5,0.5-3.7,1.6c-1.3,1.1-2.3,2.4-3.2,4.1c-0.8,1.6-1.3,3.3-1.3,4.8c0,1.6,0.4,2.8,1.3,3.8c0.8,0.9,2,1.4,3.4,1.4
				c1.2,0,2.3-0.3,3.3-1c1-0.6,2.1-1.7,3.1-3.1L58.2,34c-0.9,1.1-1.7,1.9-2.5,2.4c-0.8,0.5-1.7,0.8-2.5,0.8c-1.1,0-2-0.4-2.7-1.2
				c-0.7-0.8-1.1-1.8-1.1-3.1c0-0.2,0-0.4,0-0.5c0,0,0-0.1,0.1-0.1c2.6-1,4.6-2.1,6.1-3.5c1.5-1.3,2.2-2.7,2.2-4
				c0-0.6-0.2-1.2-0.7-1.6C56.8,22.8,56.2,22.6,55.5,22.6z M49.6,31.9C49.6,31.9,49.6,31.9,49.6,31.9c-0.1,0-0.1-0.1-0.1-0.1
				c0.2-2.1,0.9-4.1,2.1-6c1.2-1.9,2.4-2.8,3.6-2.8c0.8,0,1.3,0.5,1.3,1.4c0,0.7-0.2,1.4-0.7,2.3c-0.4,0.8-1,1.6-1.7,2.3
				C53.1,30,51.6,31,49.6,31.9C49.7,31.9,49.6,31.9,49.6,31.9z M55.3,23.2c-1.1,0-2.3,0.9-3.4,2.7c-1.1,1.7-1.8,3.6-2.1,5.6
				c1.8-0.8,3.2-1.8,4.2-2.8c0.7-0.7,1.2-1.5,1.7-2.3c0.4-0.8,0.6-1.5,0.6-2.2C56.3,23.6,56,23.2,55.3,23.2z"/>
		</g>
		<g>
			<path fill="#D1D3D4" d="M86.3,16.8l-0.8-2c1.7-0.5,3.2-1.2,4.7-2.2c1.5-1,2.7-2.1,3.5-3.3c0.9-1.2,1.3-2.4,1.3-3.6
				c0-0.9-0.3-1.6-0.8-2.1c-0.6-0.5-1.3-0.8-2.3-0.8c-1.1,0-2.4,0.3-3.7,0.9c-1.3,0.6-2.7,1.4-4,2.5c-1.3,1.1-2.6,2.3-3.8,3.8
				c-1.3,1.6-2.4,3.3-3.3,5.1s-1.5,3.6-2,5.4c-0.4,1.8-0.7,3.7-0.7,5.7c0,3.3,0.8,6,2.3,8c1.5,2,3.6,2.9,6.3,2.9
				c1.7,0,3.4-0.4,5-1.2c1.6-0.8,3.5-2.1,5.6-3.9l0.4-0.3l0.3,0.6c-2.1,2.1-4.3,3.7-6.4,4.8s-4.3,1.6-6.5,1.6c-2,0-3.7-0.5-5.3-1.4
				c-1.5-0.9-2.7-2.3-3.5-3.9c-0.8-1.7-1.2-3.7-1.2-5.9c0-1.6,0.2-3.4,0.7-5.2c0.5-1.8,1.2-3.6,2.2-5.4c1-1.8,2.1-3.6,3.4-5.3
				c1.4-1.8,2.9-3.5,4.6-4.9c1.7-1.4,3.4-2.6,5.1-3.3C89.2,2.4,90.7,2,92,2c1.3,0,2.3,0.4,3,1.1c0.8,0.7,1.1,1.7,1.1,2.9
				c0,1.4-0.5,2.8-1.4,4.3c-0.9,1.5-2.1,2.8-3.7,4C89.7,15.5,88,16.3,86.3,16.8z"/>
			<path fill="#D1D3D4" d="M81.6,38.8c-2,0-3.8-0.5-5.3-1.4c-1.5-0.9-2.8-2.3-3.6-4c-0.8-1.7-1.3-3.7-1.3-6c0-1.6,0.2-3.4,0.7-5.2
				c0.5-1.8,1.2-3.6,2.2-5.5c1-1.8,2.1-3.6,3.4-5.3c1.4-1.8,2.9-3.5,4.6-4.9C84,5,85.7,3.9,87.4,3.1c1.7-0.8,3.2-1.2,4.6-1.2
				c1.3,0,2.4,0.4,3.1,1.1c0.8,0.7,1.2,1.8,1.2,3c0,1.4-0.5,2.9-1.4,4.4c-0.9,1.5-2.2,2.9-3.7,4c-1.5,1.2-3.2,2-4.9,2.5
				c-0.1,0-0.1,0-0.2-0.1l-0.8-2c0,0,0-0.1,0-0.1c0,0,0-0.1,0.1-0.1c1.6-0.5,3.2-1.2,4.7-2.2c1.5-1,2.6-2.1,3.5-3.3
				c0.8-1.2,1.3-2.4,1.3-3.5c0-0.8-0.3-1.5-0.8-2c-0.5-0.5-1.3-0.7-2.2-0.7c-1.1,0-2.3,0.3-3.7,0.9c-1.3,0.6-2.7,1.4-4,2.5
				c-1.3,1-2.6,2.3-3.8,3.8c-1.3,1.6-2.4,3.3-3.3,5.1c-0.9,1.8-1.5,3.6-2,5.4c-0.4,1.8-0.7,3.7-0.7,5.7c0,3.3,0.8,6,2.3,7.9
				c1.5,1.9,3.6,2.9,6.2,2.9c1.7,0,3.4-0.4,5-1.1c1.6-0.8,3.5-2.1,5.5-3.8l0.4-0.4c0,0,0.1,0,0.1,0c0,0,0.1,0,0.1,0.1l0.3,0.6
				c0,0,0,0.1,0,0.1c-2.1,2.1-4.3,3.7-6.5,4.8C86,38.3,83.8,38.8,81.6,38.8z M92,2.1c-1.3,0-2.8,0.4-4.5,1.2c-1.7,0.8-3.4,1.9-5,3.3
				c-1.7,1.4-3.2,3.1-4.6,4.9c-1.3,1.7-2.4,3.5-3.4,5.3c-0.9,1.8-1.7,3.6-2.2,5.4c-0.5,1.8-0.7,3.5-0.7,5.1c0,2.2,0.4,4.2,1.2,5.9
				c0.8,1.7,2,3,3.5,3.9c1.5,0.9,3.2,1.4,5.2,1.4c2.2,0,4.3-0.5,6.4-1.6c2.1-1,4.2-2.6,6.3-4.7l-0.2-0.4l-0.3,0.3
				c-2.1,1.8-4,3.1-5.6,3.9c-1.6,0.8-3.3,1.2-5.1,1.2c-2.7,0-4.9-1-6.4-3c-1.6-2-2.3-4.7-2.3-8c0-2,0.2-3.9,0.7-5.7
				c0.4-1.8,1.1-3.7,2-5.4c0.9-1.8,2-3.5,3.3-5.1c1.2-1.5,2.5-2.8,3.8-3.8c1.3-1.1,2.7-1.9,4-2.5c1.4-0.6,2.6-0.9,3.8-0.9
				c1,0,1.8,0.3,2.4,0.8c0.6,0.5,0.9,1.3,0.9,2.2c0,1.2-0.4,2.4-1.3,3.7c-0.9,1.2-2,2.4-3.5,3.4c-1.5,1-3,1.7-4.6,2.2l0.7,1.8
				c1.7-0.5,3.3-1.3,4.7-2.4c1.5-1.2,2.7-2.5,3.6-4c0.9-1.5,1.4-2.9,1.4-4.2c0-1.2-0.4-2.2-1.1-2.9C94.3,2.5,93.3,2.1,92,2.1z"/>
		</g>
		<g>
			<path fill="#D1D3D4" d="M111.7,22.1l-2.5,9.8c-0.3,1.1-0.4,1.9-0.4,2.5c0,0.5,0.1,1,0.3,1.4c0.2,0.4,0.5,0.6,0.9,0.6
				c0.5,0,1.4-0.6,2.6-1.9l0.4,0.4l-0.3,0.3c-0.9,1.1-1.7,1.9-2.2,2.3c-0.5,0.4-1,0.7-1.3,0.7c-0.6,0-1.1-0.3-1.5-0.9
				c-0.4-0.6-0.6-1.3-0.6-2.1c0-0.6,0.2-1.9,0.6-3.9l0.2-1c-0.7,1.5-1.5,3-2.7,4.4c-1.9,2.4-3.6,3.5-5.3,3.5c-1,0-1.8-0.4-2.4-1.1
				c-0.6-0.7-0.9-1.7-0.9-3c0-1.7,0.5-3.4,1.4-5.3c1-1.8,2.1-3.4,3.6-4.6c1.4-1.2,2.8-1.8,4.1-1.8c1.4,0,2.5,0.5,3.2,1.6l0.3-1
				L111.7,22.1z M108.6,25.5c-0.2-0.7-0.6-1.2-1.1-1.6c-0.5-0.4-1.1-0.6-1.8-0.6c-0.8,0-1.6,0.4-2.5,1.1c-0.9,0.7-1.7,1.7-2.4,3
				c-0.6,1-1.1,2.1-1.4,3.4s-0.6,2.3-0.6,3.1c0,0.9,0.2,1.6,0.5,2.1c0.3,0.5,0.8,0.8,1.5,0.8c0.8,0,1.7-0.4,2.6-1.2
				c0.9-0.8,1.8-1.9,2.7-3.3c0.5-0.8,1-1.6,1.3-2.5c0.3-0.8,0.6-2,1-3.4L108.6,25.5z"/>
			<path fill="#D1D3D4" d="M99.9,38.4c-1.1,0-1.9-0.4-2.5-1.1c-0.6-0.8-0.9-1.8-0.9-3c0-1.7,0.5-3.5,1.5-5.3c1-1.8,2.2-3.4,3.6-4.6
				c1.4-1.2,2.9-1.8,4.2-1.8c1.4,0,2.4,0.5,3.1,1.4l0.2-0.8c0,0,0-0.1,0.1-0.1l2.5-1c0,0,0.1,0,0.1,0c0,0,0.1,0.1,0,0.1l-2.5,9.8
				c-0.3,1.1-0.4,1.9-0.4,2.5c0,0.5,0.1,1,0.3,1.3c0.2,0.4,0.5,0.5,0.8,0.5c0.3,0,1-0.3,2.5-1.9c0,0,0.1,0,0.1,0c0,0,0.1,0,0.1,0
				l0.4,0.4c0,0,0,0.1,0,0.2l-0.3,0.3c-0.9,1.1-1.7,1.9-2.2,2.3c-0.5,0.5-1,0.7-1.4,0.7c-0.6,0-1.2-0.3-1.6-1
				c-0.4-0.6-0.7-1.3-0.7-2.2c0-0.6,0.2-1.8,0.6-3.9c-0.6,1.2-1.3,2.4-2.2,3.5C103.4,37.2,101.6,38.4,99.9,38.4z M105.7,22.7
				c-1.3,0-2.7,0.6-4.1,1.8c-1.4,1.2-2.6,2.7-3.5,4.5c-0.9,1.8-1.4,3.6-1.4,5.2c0,1.2,0.3,2.2,0.9,2.9c0.6,0.7,1.3,1.1,2.3,1.1
				c1.7,0,3.4-1.2,5.2-3.5c1.1-1.4,2-2.9,2.6-4.4c0-0.1,0.1-0.1,0.2-0.1c0.1,0,0.1,0.1,0.1,0.1l-0.2,1c-0.4,2-0.6,3.3-0.6,3.9
				c0,0.8,0.2,1.4,0.6,2c0.4,0.6,0.9,0.8,1.4,0.8c0.3,0,0.8-0.2,1.2-0.6c0.5-0.4,1.2-1.2,2.2-2.3l0.2-0.3l-0.2-0.2
				c-1.2,1.2-2,1.9-2.6,1.9c-0.4,0-0.7-0.2-1-0.7c-0.2-0.4-0.4-0.9-0.4-1.5c0-0.6,0.1-1.5,0.4-2.6l2.5-9.6l-2.2,0.9l-0.3,1
				c0,0-0.1,0.1-0.1,0.1c0,0-0.1,0-0.1-0.1C108.1,23.2,107.1,22.7,105.7,22.7z M100.9,37c-0.7,0-1.2-0.3-1.6-0.8
				c-0.4-0.5-0.5-1.3-0.5-2.2c0-0.8,0.2-1.9,0.6-3.1c0.4-1.2,0.9-2.4,1.4-3.4c0.7-1.3,1.6-2.3,2.4-3.1c0.9-0.7,1.8-1.1,2.6-1.1
				c0.7,0,1.3,0.2,1.8,0.6c0.5,0.4,0.9,1,1.1,1.7c0,0,0,0,0,0.1l-0.2,0.9c-0.4,1.5-0.7,2.6-1,3.4c-0.3,0.8-0.7,1.7-1.3,2.5
				c-0.9,1.4-1.8,2.6-2.7,3.3C102.6,36.6,101.7,37,100.9,37z M105.8,23.5c-0.8,0-1.6,0.4-2.4,1.1c-0.9,0.7-1.7,1.7-2.4,3
				c-0.6,1-1,2.1-1.4,3.4c-0.4,1.2-0.6,2.2-0.6,3c0,0.9,0.2,1.6,0.5,2.1c0.3,0.5,0.8,0.7,1.4,0.7c0.8,0,1.6-0.4,2.5-1.1
				c0.9-0.8,1.8-1.9,2.6-3.3c0.5-0.8,1-1.6,1.3-2.4c0.3-0.8,0.6-2,1-3.4l0.2-0.9c-0.2-0.6-0.6-1.1-1-1.5
				C107,23.7,106.4,23.5,105.8,23.5z"/>
		</g>
		<g>
			<path fill="#D1D3D4" d="M112.6,48.6l5.1-25.3l2.6-1.1l-1.8,7.7c1.3-2.7,2.6-4.6,3.7-5.8c1.2-1.2,2.5-1.8,3.9-1.8
				c1.1,0,1.9,0.4,2.6,1.2c0.6,0.8,0.9,1.9,0.9,3.2c0,1.4-0.3,2.8-0.8,4.3c-0.6,1.5-1.4,2.8-2.4,4c-1.8,2.2-3.9,3.3-6.1,3.3
				c-1.4,0-2.5-0.4-3.4-1.1L114,48.6H112.6z M117.2,35.6c0.8,1.5,1.8,2.2,3.2,2.2c2,0,3.7-1.6,5.2-4.8c1.2-2.6,1.8-4.7,1.8-6.5
				c0-0.9-0.2-1.7-0.5-2.2c-0.4-0.5-0.9-0.8-1.5-0.8c-1.1,0-2.2,0.7-3.4,2.1c-1.1,1.4-2.1,3-2.9,4.7c-0.3,0.7-0.6,1.4-0.8,2.2
				c-0.3,0.8-0.5,1.6-0.7,2.4L117.2,35.6z"/>
			<path fill="#D1D3D4" d="M114,48.8h-1.5c0,0-0.1,0-0.1,0c0,0,0-0.1,0-0.1l5.1-25.3c0,0,0-0.1,0.1-0.1l2.6-1.1c0,0,0.1,0,0.1,0
				c0,0,0.1,0.1,0,0.1l-1.5,6.7c1.2-2.2,2.3-3.9,3.3-4.9c1.2-1.2,2.5-1.8,3.9-1.8c1.1,0,2,0.4,2.6,1.2c0.6,0.8,1,1.9,1,3.3
				c0,1.4-0.3,2.9-0.9,4.3c-0.6,1.5-1.4,2.8-2.4,4c-1.9,2.2-3.9,3.4-6.2,3.4c-1.3,0-2.5-0.3-3.4-1l-2.7,11
				C114.2,48.7,114.1,48.8,114,48.8z M112.7,48.5h1.2l2.7-11.1c0,0,0-0.1,0.1-0.1c0,0,0.1,0,0.1,0c0.9,0.7,2,1.1,3.4,1.1
				c2.2,0,4.2-1.1,6-3.3c1-1.2,1.8-2.5,2.4-4c0.6-1.4,0.8-2.9,0.8-4.3c0-1.3-0.3-2.4-0.9-3.2c-0.6-0.8-1.4-1.1-2.5-1.1
				c-1.4,0-2.6,0.6-3.8,1.7c-1.2,1.2-2.4,3.1-3.7,5.7c0,0.1-0.1,0.1-0.2,0.1c-0.1,0-0.1-0.1-0.1-0.1l1.7-7.5l-2.3,1L112.7,48.5z
				 M120.4,38c-1.4,0-2.5-0.8-3.3-2.3c0,0,0-0.1,0-0.1l0.2-0.8c0.2-0.8,0.5-1.6,0.7-2.4c0.3-0.8,0.5-1.5,0.8-2.2
				c0.8-1.7,1.8-3.3,2.9-4.7c1.2-1.4,2.4-2.2,3.5-2.2c0.7,0,1.3,0.3,1.6,0.8c0.4,0.5,0.6,1.3,0.6,2.3c0,1.8-0.6,4-1.8,6.6
				C124.2,36.3,122.4,38,120.4,38z M117.3,35.6c0.7,1.4,1.7,2.1,3,2.1c1.9,0,3.6-1.6,5-4.7c1.2-2.6,1.8-4.7,1.8-6.4
				c0-0.9-0.2-1.6-0.5-2.1c-0.3-0.5-0.8-0.7-1.4-0.7c-1,0-2.1,0.7-3.3,2.1c-1.1,1.4-2.1,2.9-2.9,4.6c-0.3,0.7-0.6,1.4-0.8,2.2
				c-0.3,0.8-0.5,1.6-0.7,2.4L117.3,35.6z"/>
		</g>
		<g>
			<path fill="#D1D3D4" d="M137.2,22.3l-2.4,8.8c-0.4,1.5-0.6,2.6-0.6,3.5c0,0.6,0.1,1,0.3,1.4c0.2,0.4,0.5,0.5,0.8,0.5
				c0.6,0,1.4-0.7,2.7-2l0.4,0.4l-0.3,0.3c-1,1.2-1.8,2-2.3,2.4c-0.5,0.4-0.9,0.6-1.3,0.6c-0.6,0-1-0.3-1.4-0.8
				c-0.4-0.6-0.6-1.3-0.6-2.1c0-0.5,0.1-1.4,0.3-2.6l1.7-9.4L137.2,22.3z M137.9,11.7c0.5,0,0.8,0.1,1.1,0.4
				c0.3,0.3,0.4,0.7,0.4,1.1c0,0.4-0.2,0.8-0.5,1.1c-0.3,0.3-0.7,0.5-1.1,0.5c-0.4,0-0.8-0.2-1.1-0.5s-0.5-0.7-0.5-1.1
				c0-0.4,0.2-0.8,0.5-1.1C137.1,11.9,137.5,11.7,137.9,11.7z"/>
			<path fill="#D1D3D4" d="M134.5,38.4c-0.6,0-1.1-0.3-1.5-0.9c-0.4-0.6-0.6-1.3-0.6-2.2c0-0.5,0.1-1.4,0.3-2.6l1.7-9.4
				c0,0,0-0.1,0.1-0.1l2.6-1.1c0,0,0.1,0,0.1,0c0,0,0.1,0.1,0,0.1l-2.4,8.8c-0.4,1.4-0.6,2.6-0.6,3.5c0,0.5,0.1,1,0.3,1.3
				c0.2,0.3,0.4,0.5,0.7,0.5c0.5,0,1.4-0.7,2.6-1.9c0,0,0.1-0.1,0.2,0l0.4,0.4c0,0,0,0.1,0,0.1c0,0,0,0.1,0,0.1l-0.3,0.3
				c-1,1.2-1.8,2-2.3,2.4C135.4,38.2,135,38.4,134.5,38.4z M134.6,23.4l-1.7,9.3c-0.2,1.2-0.3,2-0.3,2.5c0,0.8,0.2,1.5,0.6,2
				c0.4,0.5,0.8,0.8,1.3,0.8c0.4,0,0.8-0.2,1.3-0.6c0.5-0.4,1.2-1.2,2.2-2.4l0.2-0.2l-0.2-0.2c-1.2,1.3-2.1,1.9-2.7,1.9
				c-0.4,0-0.7-0.2-0.9-0.6c-0.2-0.4-0.3-0.9-0.3-1.5c0-0.9,0.2-2.1,0.6-3.5l2.3-8.6L134.6,23.4z M137.9,15c-0.4,0-0.8-0.2-1.2-0.5
				c-0.3-0.3-0.5-0.7-0.5-1.2c0-0.5,0.2-0.9,0.5-1.2c0.3-0.3,0.7-0.5,1.2-0.5c0.5,0,0.9,0.2,1.2,0.5c0.3,0.3,0.5,0.7,0.5,1.2
				c0,0.5-0.2,0.9-0.5,1.2C138.8,14.8,138.4,15,137.9,15z M137.9,11.9c-0.4,0-0.8,0.1-1,0.4c-0.3,0.3-0.4,0.6-0.4,1
				c0,0.4,0.1,0.7,0.4,1c0.3,0.3,0.6,0.4,1,0.4c0.4,0,0.7-0.1,1-0.4c0.3-0.3,0.4-0.6,0.4-1c0-0.4-0.1-0.8-0.4-1
				C138.7,12,138.4,11.9,137.9,11.9z"/>
		</g>
		<g>
			<path fill="#D1D3D4" d="M144.8,23.6l-2,8.9c-0.2,1-0.3,1.7-0.3,2.1c0,0.6,0.2,1.2,0.5,1.6c0.3,0.4,0.7,0.6,1.2,0.6
				c0.5,0,0.9-0.1,1.3-0.4c0.4-0.3,1-0.9,1.8-1.7l0.3-0.3l0.4,0.4c-1.1,1.3-1.9,2.2-2.6,2.7c-0.7,0.5-1.4,0.8-2.1,0.8
				c-0.9,0-1.5-0.3-2.1-0.8c-0.5-0.6-0.8-1.3-0.8-2.2c0-0.7,0.1-1.7,0.4-3l1.7-8.6h-2.6l0.2-0.9h2.6l1.5-7.3l2.6-1l-1.9,8.3h4.4
				l-0.2,0.9H144.8z"/>
			<path fill="#D1D3D4" d="M143.3,38.4c-0.9,0-1.6-0.3-2.1-0.9c-0.5-0.6-0.8-1.4-0.8-2.3c0-0.7,0.1-1.7,0.4-3l1.7-8.5h-2.4
				c0,0-0.1,0-0.1,0c0,0,0-0.1,0-0.1l0.2-0.9c0-0.1,0.1-0.1,0.1-0.1h2.5l1.5-7.2c0,0,0-0.1,0.1-0.1l2.6-1c0,0,0.1,0,0.1,0
				c0,0,0.1,0.1,0,0.1l-1.8,8.1h4.2c0,0,0.1,0,0.1,0c0,0,0,0.1,0,0.1l-0.2,0.9c0,0.1-0.1,0.1-0.1,0.1h-4.3l-2,8.8
				c-0.2,1-0.3,1.7-0.3,2.1c0,0.6,0.1,1.1,0.4,1.5c0.3,0.4,0.6,0.5,1.1,0.5c0.5,0,0.9-0.1,1.3-0.4c0.4-0.3,1-0.8,1.8-1.7l0.3-0.3
				c0,0,0.1,0,0.1,0l0,0c0,0,0.1,0,0.1,0l0.4,0.4c0,0,0,0.1,0,0.2c-1.1,1.3-2,2.2-2.7,2.7C144.7,38.1,144,38.4,143.3,38.4z
				 M140.2,23.5h2.4c0,0,0.1,0,0.1,0c0,0,0,0.1,0,0.1l-1.7,8.6c-0.3,1.3-0.4,2.3-0.4,2.9c0,0.9,0.2,1.6,0.7,2.1
				c0.5,0.5,1.1,0.8,2,0.8c0.6,0,1.3-0.3,2-0.8c0.7-0.5,1.5-1.4,2.6-2.6l-0.2-0.2l-0.2,0.2c-0.8,0.9-1.4,1.5-1.9,1.7
				c-0.4,0.3-0.9,0.4-1.4,0.4c-0.5,0-1-0.2-1.3-0.6c-0.3-0.4-0.5-1-0.5-1.6c0-0.4,0.1-1.1,0.3-2.1l2-8.9c0-0.1,0.1-0.1,0.1-0.1h4.2
				l0.1-0.7H145c0,0-0.1,0-0.1,0s0-0.1,0-0.1l1.8-8l-2.3,0.9l-1.5,7.2c0,0.1-0.1,0.1-0.1,0.1h-2.5L140.2,23.5z"/>
		</g>
		<g>
			<path fill="#D1D3D4" d="M164.7,22.1l-2.5,9.8c-0.3,1.1-0.4,1.9-0.4,2.5c0,0.5,0.1,1,0.3,1.4c0.2,0.4,0.5,0.6,0.9,0.6
				c0.5,0,1.4-0.6,2.6-1.9l0.4,0.4l-0.3,0.3c-0.9,1.1-1.7,1.9-2.2,2.3c-0.5,0.4-1,0.7-1.3,0.7c-0.6,0-1.1-0.3-1.5-0.9
				c-0.4-0.6-0.6-1.3-0.6-2.1c0-0.6,0.2-1.9,0.6-3.9l0.2-1c-0.7,1.5-1.5,3-2.7,4.4c-1.9,2.4-3.6,3.5-5.3,3.5c-1,0-1.8-0.4-2.4-1.1
				c-0.6-0.7-0.9-1.7-0.9-3c0-1.7,0.5-3.4,1.4-5.3c1-1.8,2.1-3.4,3.6-4.6c1.4-1.2,2.8-1.8,4.1-1.8c1.4,0,2.5,0.5,3.2,1.6l0.3-1
				L164.7,22.1z M161.6,25.5c-0.2-0.7-0.6-1.2-1.1-1.6c-0.5-0.4-1.1-0.6-1.8-0.6c-0.8,0-1.6,0.4-2.5,1.1c-0.9,0.7-1.7,1.7-2.4,3
				c-0.6,1-1.1,2.1-1.4,3.4s-0.6,2.3-0.6,3.1c0,0.9,0.2,1.6,0.5,2.1c0.3,0.5,0.8,0.8,1.5,0.8c0.8,0,1.7-0.4,2.6-1.2
				c0.9-0.8,1.8-1.9,2.7-3.3c0.5-0.8,1-1.6,1.3-2.5c0.3-0.8,0.6-2,1-3.4L161.6,25.5z"/>
			<path fill="#D1D3D4" d="M152.9,38.4c-1.1,0-1.9-0.4-2.5-1.1c-0.6-0.8-0.9-1.8-0.9-3c0-1.7,0.5-3.5,1.5-5.3c1-1.8,2.2-3.4,3.6-4.6
				c1.4-1.2,2.9-1.8,4.2-1.8c1.4,0,2.4,0.5,3.1,1.4l0.2-0.8c0,0,0-0.1,0.1-0.1l2.5-1c0,0,0.1,0,0.1,0c0,0,0.1,0.1,0,0.1l-2.5,9.8
				c-0.3,1.1-0.4,1.9-0.4,2.5c0,0.5,0.1,1,0.3,1.3c0.2,0.4,0.5,0.5,0.8,0.5c0.3,0,1-0.3,2.5-1.9c0,0,0.1,0,0.1,0c0,0,0.1,0,0.1,0
				l0.4,0.4c0,0,0,0.1,0,0.2l-0.3,0.3c-0.9,1.1-1.7,1.9-2.2,2.3c-0.5,0.5-1,0.7-1.4,0.7c-0.6,0-1.2-0.3-1.6-1
				c-0.4-0.6-0.7-1.3-0.7-2.2c0-0.6,0.2-1.8,0.6-3.9c-0.6,1.2-1.3,2.4-2.2,3.5C156.4,37.2,154.6,38.4,152.9,38.4z M158.7,22.7
				c-1.3,0-2.7,0.6-4.1,1.8c-1.4,1.2-2.6,2.7-3.5,4.5c-0.9,1.8-1.4,3.6-1.4,5.2c0,1.2,0.3,2.2,0.9,2.9c0.6,0.7,1.3,1.1,2.3,1.1
				c1.7,0,3.4-1.2,5.2-3.5c1.1-1.4,2-2.9,2.6-4.4c0-0.1,0.1-0.1,0.2-0.1c0.1,0,0.1,0.1,0.1,0.1l-0.2,1c-0.4,2-0.6,3.3-0.6,3.9
				c0,0.8,0.2,1.4,0.6,2c0.4,0.6,0.9,0.8,1.4,0.8c0.3,0,0.8-0.2,1.2-0.6c0.5-0.4,1.2-1.2,2.2-2.3l0.2-0.3l-0.2-0.2
				c-1.2,1.2-2,1.9-2.6,1.9c-0.4,0-0.7-0.2-1-0.7c-0.2-0.4-0.4-0.9-0.4-1.5c0-0.6,0.1-1.5,0.4-2.6l2.5-9.6l-2.2,0.9l-0.3,1
				c0,0-0.1,0.1-0.1,0.1c0,0-0.1,0-0.1-0.1C161.1,23.2,160.1,22.7,158.7,22.7z M153.9,37c-0.7,0-1.2-0.3-1.6-0.8
				c-0.4-0.5-0.5-1.3-0.5-2.2c0-0.8,0.2-1.9,0.6-3.1c0.4-1.2,0.9-2.4,1.4-3.4c0.7-1.3,1.6-2.3,2.4-3.1c0.9-0.7,1.8-1.1,2.6-1.1
				c0.7,0,1.3,0.2,1.8,0.6c0.5,0.4,0.9,1,1.1,1.7c0,0,0,0,0,0.1l-0.2,0.9c-0.4,1.5-0.7,2.6-1,3.4c-0.3,0.8-0.7,1.7-1.3,2.5
				c-0.9,1.4-1.8,2.6-2.7,3.3C155.6,36.6,154.7,37,153.9,37z M158.8,23.5c-0.8,0-1.6,0.4-2.4,1.1c-0.9,0.7-1.7,1.7-2.4,3
				c-0.6,1-1,2.1-1.4,3.4c-0.4,1.2-0.6,2.2-0.6,3c0,0.9,0.2,1.6,0.5,2.1c0.3,0.5,0.8,0.7,1.4,0.7c0.8,0,1.6-0.4,2.5-1.1
				c0.9-0.8,1.8-1.9,2.6-3.3c0.5-0.8,1-1.6,1.3-2.4c0.3-0.8,0.6-2,1-3.4l0.2-0.9c-0.2-0.6-0.6-1.1-1-1.5
				C160,23.7,159.4,23.5,158.8,23.5z"/>
		</g>
		<g>
			<path fill="#D1D3D4" d="M177.5,0.1l-7.1,31l-0.2,1c-0.2,1-0.3,1.8-0.3,2.5c0,0.6,0.1,1,0.3,1.4c0.2,0.3,0.5,0.5,0.8,0.5
				c0.6,0,1.4-0.7,2.7-2l0.4,0.4l-0.3,0.3c-1,1.2-1.8,2-2.3,2.4c-0.5,0.4-0.9,0.6-1.3,0.6c-0.5,0-1-0.3-1.4-0.9
				c-0.4-0.6-0.6-1.3-0.6-2.1c0-0.5,0.1-1.4,0.3-2.6l6.2-31.3L177.5,0.1z"/>
			<path fill="#D1D3D4" d="M170.2,38.4c-0.6,0-1.1-0.3-1.5-1c-0.4-0.6-0.6-1.3-0.6-2.1c0-0.5,0.1-1.4,0.4-2.6l6.2-31.3
				c0,0,0-0.1,0.1-0.1l2.8-1.4c0,0,0.1,0,0.1,0c0,0,0.1,0.1,0,0.1l-7.3,32c-0.2,1-0.3,1.8-0.3,2.5c0,0.5,0.1,1,0.3,1.3
				c0.2,0.3,0.4,0.5,0.7,0.5c0.5,0,1.4-0.7,2.6-1.9c0,0,0.1-0.1,0.2,0l0.4,0.4c0,0,0,0.1,0,0.1c0,0,0,0.1,0,0.1l-0.3,0.3
				c-1,1.2-1.8,2-2.3,2.4C171.1,38.2,170.6,38.4,170.2,38.4z M174.8,1.6l-6.2,31.2c-0.2,1.2-0.3,2-0.3,2.5c0,0.7,0.2,1.4,0.6,2
				c0.4,0.6,0.8,0.8,1.3,0.8c0.4,0,0.8-0.2,1.3-0.6c0.5-0.4,1.2-1.2,2.2-2.4l0.2-0.2l-0.2-0.2c-1.2,1.3-2.1,1.9-2.7,1.9
				c-0.4,0-0.6-0.2-0.9-0.6c-0.2-0.4-0.3-0.8-0.3-1.4c0-0.7,0.1-1.5,0.4-2.5l0.2-1l7-30.7L174.8,1.6z"/>
		</g>
	</g>
	<g>
		<g>
			<path fill="#939598" d="M31.2,59.7C31.3,59.7,31.3,59.7,31.2,59.7l0.1-0.3c0-1.9,0-2.2,0-2.6c0-0.4-0.1-0.6-0.5-0.7
				c-0.1,0-0.3,0-0.4,0c0,0-0.1,0-0.1-0.1c0-0.1,0.1-0.1,0.2-0.1c0.5,0,1.3,0,1.4,0c0.1,0,0.8,0,1.2,0c0.1,0,0.2,0,0.2,0.1
				c0,0,0,0.1-0.1,0.1c-0.1,0-0.2,0-0.3,0c-0.3,0.1-0.4,0.3-0.4,0.7c0,0.4,0,0.7,0,2.6v2.1c0,1.2,0,2.1,0.1,2.6
				c0,0.3,0.1,0.6,0.5,0.7c0.2,0,0.4,0,0.5,0c0.1,0,0.1,0,0.1,0.1c0,0.1-0.1,0.1-0.2,0.1c-0.7,0-1.4,0-1.5,0c-0.1,0-0.8,0-1.2,0
				c-0.1,0-0.2,0-0.2-0.1c0,0,0-0.1,0.1-0.1c0.1,0,0.3,0,0.4,0c0.2,0,0.3-0.3,0.3-0.7c0.1-0.5,0.1-1.5,0.1-2.6v-1.3
				c0,0,0-0.1-0.1-0.1h-5.1c0,0-0.1,0-0.1,0.1v1.3c0,1.2,0,2.1,0.1,2.6c0,0.3,0.1,0.6,0.5,0.7c0.2,0,0.4,0,0.5,0
				c0.1,0,0.1,0,0.1,0.1c0,0.1-0.1,0.1-0.2,0.1c-0.7,0-1.4,0-1.5,0c-0.1,0-0.8,0-1.2,0c-0.1,0-0.2,0-0.2-0.1c0,0,0-0.1,0.1-0.1
				c0.1,0,0.3,0,0.4,0c0.2,0,0.3-0.3,0.3-0.7c0.1-0.5,0.1-1.5,0.1-2.6v-2.1c0-1.9,0-2.2,0-2.6c0-0.4-0.1-0.6-0.5-0.7
				c-0.1,0-0.3,0-0.4,0c0,0-0.1,0-0.1-0.1c0-0.1,0.1-0.1,0.2-0.1c0.5,0,1.3,0,1.4,0c0.1,0,0.8,0,1.2,0c0.1,0,0.2,0,0.2,0.1
				c0,0,0,0.1-0.1,0.1c-0.1,0-0.2,0-0.3,0c-0.3,0.1-0.4,0.3-0.4,0.7c0,0.4,0,0.7,0,2.6v0.3c0,0.1,0,0.1,0.1,0.1H31.2z"/>
		</g>
		<g>
			<path fill="#939598" d="M35.5,61.1c0-1.6,1.2-4,4.2-4c2.4,0,4.2,1.4,4.2,3.8c0,2.3-1.7,4.2-4.2,4.2
				C36.7,65.1,35.5,62.9,35.5,61.1z M42.8,61.2c0-2.4-1.5-3.8-3.1-3.8c-1.7,0-3,1-3,3.3c0,2.4,1.3,3.9,3.3,3.9
				C40.7,64.7,42.8,64.3,42.8,61.2z"/>
		</g>
		<g>
			<path fill="#939598" d="M49.5,62c0,0.9,0,1.8,0.1,2.2c0,0.3,0.1,0.5,0.4,0.5c0.1,0,0.4,0,0.5,0s0.1,0,0.1,0.1
				c0,0.1,0,0.1-0.2,0.1c-0.6,0-1.3,0-1.4,0s-0.8,0-1.1,0c-0.1,0-0.2,0-0.2-0.1c0,0,0-0.1,0.1-0.1s0.2,0,0.3,0
				c0.2,0,0.3-0.2,0.3-0.6c0-0.4,0-1.3,0-2.2v-4.3c-0.4,0-1,0-1.5,0c-0.8,0-0.9,0.1-1.1,0.4c-0.1,0.2-0.2,0.3-0.2,0.4
				c0,0.1-0.1,0.1-0.1,0.1s-0.1,0-0.1-0.1c0-0.1,0.2-0.9,0.2-1.2c0-0.1,0.1-0.2,0.1-0.2c0.1,0,0.3,0.1,0.5,0.1
				c0.4,0,0.8,0.1,0.8,0.1h3.9c0.3,0,0.7,0,0.9-0.1c0.2,0,0.2,0,0.2,0c0,0,0.1,0.1,0.1,0.1c0,0.3,0,1.1,0,1.2c0,0.1,0,0.1-0.1,0.1
				c-0.1,0-0.1,0-0.1-0.1c0,0,0,0,0-0.2c0-0.5-0.2-0.6-1.4-0.6c-0.5,0-0.8,0-1.2,0V62z"/>
		</g>
		<g>
			<path fill="#939598" d="M55.5,60.2c0-1.6,0-1.9,0-2.2c0-0.3-0.1-0.5-0.5-0.6c-0.1,0-0.2,0-0.3,0c-0.1,0-0.2,0-0.2-0.1
				c0-0.1,0.1-0.1,0.2-0.1c0.2,0,0.6,0,1.2,0c0.1,0,2.2,0,2.4,0c0.2,0,0.4,0,0.5-0.1c0.1,0,0.1,0,0.1,0c0,0,0,0,0,0.1
				c0,0.1-0.1,0.2-0.1,0.5c0,0.2,0,0.4,0,0.6c0,0.1,0,0.2-0.1,0.2c-0.1,0-0.1,0-0.1-0.1c0-0.2,0-0.3-0.1-0.4
				c-0.1-0.2-0.2-0.3-0.8-0.4c-0.2,0-1.3,0-1.4,0c0,0-0.1,0-0.1,0.1v2.7c0,0.1,0,0.1,0.1,0.1c0.1,0,1.4,0,1.6,0c0.3,0,0.5,0,0.6-0.2
				c0-0.1,0.1-0.1,0.1-0.1c0,0,0,0,0,0.1s0,0.3-0.1,0.6c0,0.3,0,0.6,0,0.7c0,0.1,0,0.1-0.1,0.1c-0.1,0-0.1-0.1-0.1-0.2
				c0-0.1,0-0.2,0-0.3c0-0.2-0.1-0.3-0.6-0.4c-0.3,0-1.2,0-1.4,0c-0.1,0-0.1,0-0.1,0.1V62c0,0.4,0,1.4,0,1.6c0,0.4,0.1,0.7,0.3,0.8
				c0.2,0.1,0.5,0.1,0.9,0.1c0.2,0,0.6,0,0.9-0.1c0.4-0.1,0.4-0.3,0.5-0.8c0-0.1,0.1-0.2,0.1-0.2c0.1,0,0.1,0.1,0.1,0.2
				c0,0.1-0.1,0.8-0.1,1c0,0.2-0.1,0.3-0.5,0.3c-0.8,0-1.1,0-1.5,0c-0.4,0-1,0-1.4,0c-0.3,0-0.5,0-0.8,0c-0.1,0-0.2,0-0.2-0.1
				c0,0,0-0.1,0.1-0.1c0.1,0,0.2,0,0.2,0c0.2,0,0.4-0.2,0.4-0.9c0-0.4,0-0.9,0-1.8V60.2z"/>
		</g>
		<g>
			<path fill="#939598" d="M63.5,62c0,1.4,0,2.1,0.3,2.3c0.2,0.2,0.4,0.2,1.3,0.2c0.5,0,1,0,1.3-0.3c0.1-0.2,0.2-0.4,0.2-0.6
				c0-0.1,0-0.1,0.1-0.1c0,0,0.1,0,0.1,0.2s-0.1,0.8-0.1,1.1c-0.1,0.2-0.1,0.3-0.6,0.3c-0.8,0-1.7-0.1-2.9-0.1c-0.4,0-0.6,0-1.1,0
				c-0.1,0-0.2,0-0.2-0.1c0,0,0-0.1,0.1-0.1c0.1,0,0.2,0,0.3,0c0.2,0,0.3-0.3,0.3-0.6c0.1-0.5,0-1.3,0-2.2v-1.8c0-1.6,0-1.8,0-2.2
				c0-0.3-0.1-0.6-0.5-0.6c-0.1,0-0.2,0-0.3,0c-0.1,0-0.1,0-0.1-0.1c0-0.1,0.1-0.1,0.2-0.1c0.5,0,1.2,0,1.2,0c0.2,0,0.9,0,1.2,0
				c0.1,0,0.2,0,0.2,0.1s-0.1,0.1-0.1,0.1c-0.1,0-0.2,0-0.3,0c-0.3,0-0.4,0.2-0.4,0.6c0,0.3,0,0.6,0,2.2V62z"/>
		</g>
		<g>
			<path fill="#939598" d="M75.9,60c0.3,0,0.4,0.1,0.4,0.2c0,0.1,0,0.2-0.1,0.2c-0.3,0.6-0.9,1-1.3,1.4c-0.1,0.1-0.2,0.2-0.2,0.2
				c0,0-0.1,0-0.1-0.1c0,0,0-0.2,0.1-0.2c0.1-0.3,0.1-0.7,0.1-1c0-0.6-0.3-0.7-0.4-0.8c-0.1,0-0.2-0.1-0.2-0.1s0-0.1,0.1-0.1
				C74.5,59.7,75.3,59.9,75.9,60z"/>
		</g>
		<g>
			<path fill="#939598" d="M84.8,64.8c-0.2-0.1-0.2-0.1-0.2-0.5c0-0.6,0-1.1,0.1-1.3c0-0.1,0-0.2,0.1-0.2c0.1,0,0.1,0,0.1,0.1
				c0,0.1,0,0.3,0,0.4c0.2,0.9,1,1.2,1.8,1.2c1.2,0,1.7-0.8,1.7-1.6c0-0.8-0.3-1.3-1.4-2.2l-0.5-0.4c-1.3-1-1.6-1.8-1.6-2.6
				c0-1.3,1-2.2,2.5-2.2c0.5,0,0.8,0,1.1,0.1c0.2,0,0.3,0.1,0.4,0.1s0.1,0,0.1,0.1s0,0.5,0,1.3c0,0.2,0,0.3-0.1,0.3
				c-0.1,0-0.1-0.1-0.1-0.2c0-0.1-0.1-0.5-0.2-0.6c-0.1-0.1-0.4-0.6-1.5-0.6c-0.8,0-1.5,0.5-1.5,1.4c0,0.7,0.3,1.1,1.5,2l0.3,0.3
				c1.4,1.1,1.8,1.9,1.8,2.8c0,0.5-0.2,1.4-1,2c-0.5,0.4-1.2,0.5-1.8,0.5C85.8,65.1,85.3,65,84.8,64.8z"/>
		</g>
		<g>
			<path fill="#939598" d="M95.2,62c0,0.9,0,1.8,0.1,2.2c0,0.3,0.1,0.5,0.4,0.5c0.1,0,0.4,0,0.5,0c0.1,0,0.1,0,0.1,0.1
				c0,0.1,0,0.1-0.2,0.1c-0.6,0-1.3,0-1.4,0s-0.8,0-1.1,0c-0.1,0-0.2,0-0.2-0.1c0,0,0-0.1,0.1-0.1c0.1,0,0.2,0,0.3,0
				c0.2,0,0.3-0.2,0.3-0.6c0-0.4,0-1.3,0-2.2v-4.3c-0.4,0-1,0-1.5,0c-0.8,0-0.9,0.1-1.1,0.4c-0.1,0.2-0.2,0.3-0.2,0.4
				c0,0.1-0.1,0.1-0.1,0.1s-0.1,0-0.1-0.1c0-0.1,0.2-0.9,0.2-1.2c0-0.1,0.1-0.2,0.1-0.2c0.1,0,0.3,0.1,0.5,0.1
				c0.4,0,0.8,0.1,0.8,0.1h3.9c0.3,0,0.7,0,0.9-0.1c0.2,0,0.2,0,0.2,0c0,0,0.1,0.1,0.1,0.1c0,0.3,0,1.1,0,1.2c0,0.1,0,0.1-0.1,0.1
				c-0.1,0-0.1,0-0.1-0.1c0,0,0,0,0-0.2c0-0.5-0.2-0.6-1.4-0.6c-0.5,0-0.8,0-1.2,0V62z"/>
		</g>
		<g>
			<path fill="#939598" d="M99.3,64.4c0-0.3,0.2-0.6,0.6-0.6c0.3,0,0.6,0.3,0.6,0.6c0,0.4-0.3,0.6-0.6,0.6
				C99.5,65,99.3,64.7,99.3,64.4z"/>
		</g>
		<g>
			<path fill="#939598" d="M110.3,62.2c0,1.9,0,2.7-0.4,3.5c-0.3,0.6-0.8,1.2-1.8,1.8c-0.2,0.1-0.3,0.2-0.5,0.3c0,0,0,0-0.1,0
				s-0.1,0-0.1-0.1c0-0.1,0.1-0.1,0.2-0.2c0.1-0.1,0.3-0.2,0.4-0.3c0.8-0.8,1.2-1.4,1.2-4.5v-3.5c0-1.9,0-2.2,0-2.6
				c0-0.4-0.1-0.6-0.5-0.7c-0.1,0-0.3,0-0.4,0c-0.1,0-0.1,0-0.1-0.1c0,0,0-0.1,0.2-0.1c0.5,0,1.3,0,1.4,0c0.1,0,0.8,0,1.2,0
				c0.1,0,0.2,0,0.2,0.1c0,0-0.1,0.1-0.1,0.1c-0.1,0-0.2,0-0.3,0c-0.3,0-0.4,0.3-0.4,0.7c0,0.4,0,0.7,0,2.6V62.2z"/>
		</g>
		<g>
			<path fill="#939598" d="M113.3,61.1c0-1.6,1.2-4,4.2-4c2.4,0,4.2,1.4,4.2,3.8c0,2.3-1.7,4.2-4.2,4.2
				C114.5,65.1,113.3,62.9,113.3,61.1z M120.5,61.2c0-2.4-1.5-3.8-3.1-3.8c-1.7,0-3,1-3,3.3c0,2.4,1.3,3.9,3.3,3.9
				C118.5,64.7,120.5,64.3,120.5,61.2z"/>
		</g>
		<g>
			<path fill="#939598" d="M130.1,60.4C130.1,60.4,130.2,60.4,130.1,60.4l0.1-0.3c0-1.6,0-1.9,0-2.2c0-0.3-0.1-0.5-0.5-0.6
				c-0.1,0-0.2,0-0.3,0c-0.1,0-0.1,0-0.1-0.1c0-0.1,0.1-0.1,0.2-0.1c0.5,0,1.2,0,1.3,0s0.7,0,1.1,0c0.1,0,0.2,0,0.2,0.1
				c0,0,0,0.1-0.1,0.1c-0.1,0-0.2,0-0.2,0c-0.3,0-0.4,0.2-0.4,0.6c0,0.3,0,0.6,0,2.2V62c0,1,0,1.8,0,2.2c0,0.3,0.1,0.5,0.4,0.6
				c0.2,0,0.3,0,0.4,0c0.1,0,0.2,0,0.2,0.1c0,0.1-0.1,0.1-0.2,0.1c-0.6,0-1.3,0-1.4,0c0,0-0.7,0-1.1,0c-0.1,0-0.2,0-0.2-0.1
				c0,0,0-0.1,0.1-0.1s0.2,0,0.3,0c0.2,0,0.3-0.3,0.3-0.6c0.1-0.4,0.1-1.2,0.1-2.2V61c0,0,0-0.1-0.1-0.1h-4.4c0,0-0.1,0-0.1,0.1V62
				c0,1,0,1.8,0.1,2.2c0,0.3,0.1,0.5,0.4,0.5c0.2,0,0.3,0,0.4,0c0.1,0,0.1,0,0.1,0.1s0,0.1-0.2,0.1c-0.6,0-1.3,0-1.4,0
				c0,0-0.8,0-1.1,0c-0.1,0-0.2,0-0.2-0.1c0,0,0-0.1,0.1-0.1c0.1,0,0.2,0,0.3,0c0.2,0,0.3-0.3,0.3-0.5c0.1-0.4,0.1-1.2,0.1-2.2v-1.8
				c0-1.6,0-1.9,0-2.2c0-0.3-0.1-0.5-0.5-0.6c-0.1,0-0.2,0-0.3,0c-0.1,0-0.1,0-0.1-0.1c0-0.1,0.1-0.1,0.2-0.1c0.5,0,1.1,0,1.2,0
				c0,0,0.7,0,1.1,0c0.1,0,0.2,0,0.2,0.1c0,0,0,0.1-0.1,0.1s-0.1,0-0.2,0c-0.3,0-0.4,0.3-0.4,0.6c0,0.3,0,0.6,0,2.2v0.2
				c0,0.1,0,0.1,0.1,0.1H130.1z"/>
		</g>
		<g>
			<path fill="#939598" d="M135.3,57.6c0-0.4,0-0.5,0.1-0.5c0.1,0,0.3,0.2,0.4,0.3c0.1,0.1,1.8,1.8,3.5,3.5c0.9,0.9,2.1,2.1,2.4,2.4
				l-0.1-5c0-0.6-0.1-0.9-0.4-0.9c-0.2,0-0.4,0-0.5,0c-0.1,0-0.1,0-0.1-0.1c0-0.1,0.1-0.1,0.2-0.1c0.5,0,1,0,1.1,0c0.1,0,0.5,0,1,0
				c0.1,0,0.2,0,0.2,0.1c0,0,0,0.1-0.1,0.1c-0.1,0-0.2,0-0.3,0c-0.3,0.1-0.4,0.2-0.4,0.9l0,6c0,0.6,0,0.7-0.1,0.7s-0.2-0.1-0.8-0.6
				c0,0-1.7-1.7-2.8-2.7c-1.2-1.3-2.4-2.5-2.7-2.9l0.2,4.7c0,0.8,0.1,1.1,0.4,1.2c0.2,0,0.4,0,0.5,0s0.1,0,0.1,0.1
				c0,0.1-0.1,0.1-0.2,0.1c-0.6,0-1.1,0-1.2,0s-0.5,0-1,0c-0.1,0-0.2,0-0.2-0.1c0,0,0-0.1,0.2-0.1c0.1,0,0.2,0,0.4,0
				c0.3-0.1,0.3-0.4,0.3-1.3C135.3,57.7,135.4,59.6,135.3,57.6z"/>
		</g>
		<g>
			<path fill="#939598" d="M145.6,57.9c-0.1,0.1-0.2,0.2-0.2,0.2c-0.1,0,0-0.2,0-0.2c0.3-0.5,0.5-1.1,0.5-1.7c0-0.6-0.2-0.8-0.3-1
				c-0.1,0,0-0.1,0-0.1c0.3,0,0.6,0.1,0.8,0.2c0.2,0.1,0.2,0.2,0.2,0.4C146.7,56.4,146.1,57.4,145.6,57.9z"/>
		</g>
		<g>
			<path fill="#939598" d="M149,64.8c-0.2-0.1-0.2-0.1-0.2-0.4c0-0.6,0-1,0-1.1c0-0.1,0-0.2,0.1-0.2c0.1,0,0.1,0,0.1,0.1
				c0,0.1,0,0.2,0,0.4c0.2,0.8,0.9,1.1,1.6,1.1c1,0,1.5-0.7,1.5-1.3c0-0.7-0.3-1.1-1.2-1.8l-0.5-0.4c-1.2-0.9-1.4-1.6-1.4-2.3
				c0-1.1,0.9-1.8,2.2-1.8c0.4,0,0.7,0,1,0.1c0.2,0,0.3,0.1,0.4,0.1s0.1,0,0.1,0.1s0,0.5,0,1.2c0,0.2,0,0.3-0.1,0.3
				c-0.1,0-0.1,0-0.1-0.1c0-0.1,0-0.4-0.1-0.6c-0.1-0.1-0.3-0.6-1.3-0.6c-0.7,0-1.3,0.4-1.3,1.2c0,0.6,0.3,0.9,1.3,1.7l0.3,0.2
				c1.2,1,1.6,1.6,1.6,2.4c0,0.4-0.2,1.2-0.9,1.7c-0.5,0.3-1,0.4-1.6,0.4C149.9,65.1,149.4,65,149,64.8z"/>
		</g>
	</g>
</g>
</svg>
