<?xml version="1.0" encoding="utf-8"?>
<!-- Generator: Adobe Illustrator 18.1.0, SVG Export Plug-In . SVG Version: 6.00 Build 0)  -->
<svg version="1.1" id="Layer_1" xmlns="http://www.w3.org/2000/svg" xmlns:xlink="http://www.w3.org/1999/xlink" x="0px" y="0px"
	 viewBox="0 236.9 612 319.6" enable-background="new 0 236.9 612 319.6" xml:space="preserve">
<g>
	<g>
		<g>
			<path fill="#414042" d="M46.7,236.9c12.3,0.9,30.4,20.3,33.9,20.3c2.6,0,7.9-14.5,11.5-14.5c1.3,0,3.5,1.8,3.5,3.5
				c0,0-17.6,24.2-17.6,34.4c0,1.8,2.6,1.8,4,1.8c17.6,4.4,23.8,12.3,23.8,29.1c0,26-15,54.2-47.1,55.1c-17.2,0.9-41-6.2-44.1-6.2
				c-4.4,0-7.9,25.1-11,25.1c-0.9,0-3.5-1.8-3.5-3.1c0,0,6.2-15.9,10.1-30c0,0,1.3-16.3,4.4-16.3c0,0,42.3,30.4,59.9,21.6
				c13.2-6.6,16.7-30,16.7-34.4c0-13.2-5.7-22-15.9-22c-10.6,0-37.9,11.5-51.6,11.5c-11.9,0-17.6-11-17.6-22.9
				C6.2,260.7,22.5,235.2,46.7,236.9z M20.7,276.2c0,8.8,4.4,17.6,14.1,17.6c6.6,0,34.4-7.5,38.8-11.9
				c-17.6-23.8-29.5-35.2-35.7-35.2C25.6,246.6,20.7,261.6,20.7,276.2z"/>
		</g>
		<g>
			<path fill="#414042" d="M148.9,282.8c5.7-0.4,3.5,6.6,3.5,10.6c0,17.6,0,34.8,0,52c5.3,0,10.1-6.2,12.3-4.4
				c4,2.6-4.4,6.6-6.2,7.5c-6.6,4-9.7,7-16.3,10.6c0,0-3.1,3.1-5.3,0.4c-0.9-0.9-0.4-18.9-0.4-37.9c0-7,0.4-16.7-2.2-21.6
				c-4.4-7.5-14.5-5.7-11.5-11.5C122.5,288.9,143.2,283.2,148.9,282.8z M156.9,247.5c13.7-1.3-2.6,20.3-13.7,21.1
				c-5.7-2.6-1.8-3.5,0-8.8C148,248.8,145.4,248.4,156.9,247.5z"/>
		</g>
		<g>
			<path fill="#414042" d="M226.5,291.6c11.5-1.8,21.6,6.2,21.6,30.4c0,9.3-4,25.1-2.6,27.3c1.8,3.5,13.7-12.3,15-5.3
				c0,0-18.5,14.1-24.2,15.4c-5.7,0.9-2.6-5.3-2.6-9.3c1.3-26.4-1.8-58.6-21.6-47.6c-7,4-7.5,4-7.5,17.2c0,6.6,4,40.5-15,41.9
				c-0.9-10.1,2.2-48-4-55.5c-4.4-5.3-7.5-4.4-7.5-7c0,0,9.3-7,12.3-6.6c5.7,1.3,8.8,9.7,12.3,10.1
				C203.6,302.6,219,292.5,226.5,291.6z"/>
		</g>
		<g>
			<path fill="#414042" d="M288.2,240v60.8c7,0,15.9-11.9,26.4-11.9c16.7,0,24.2,19.4,23.8,36.1c0,12.3-4,22-14.5,28.2
				c-5.3,3.1-9.7,7.5-19.8,7.5c-17.6,0-30.4-10.6-30.4-26.4v-71.4c0-7.5-11.5-10.6-11.5-14.5c0-2.6,9.3-2.2,13.2-2.6
				C275.8,245.8,287.3,240,288.2,240z M288.6,314.9v17.6c0,14.1,15,21.1,21.1,21.1c10.6,0,15.9-15.4,15.9-25.6
				c0-23.8-16.7-30-18.9-30C299.6,298.6,288.6,308.3,288.6,314.9z"/>
		</g>
		<g>
			<path fill="#414042" d="M387.3,288.9c7,0,27.8,6.2,27.8,15.9v33.9c0,0,0.9,7.5,4.8,9.3c10.6,4.8,11.5,2.6,11.5,5.7
				c0,1.8-7,6.6-10.6,6.6c-18.9,0-19.8-9.7-25.1-9.7c-5.7,0-8.4,10.1-24.7,10.1c-13.2,0-18.1-3.1-18.1-11c0-11,15.9-18.5,21.6-20.7
				c10.1-3.5,22.5-7,22.5-13.7c0-11.9-10.6-17.6-18.1-17.6c-1.3,0-9.7,2.6-9.7,4.4c0,2.6,5.3,1.8,5.3,4.4c0,1.3-13.7,9.7-19.8-0.9
				C349,296.4,375,288.9,387.3,288.9z M370.5,343.1c0,8.4,7.9,12.3,17.2,5.7c8.8-6.2,9.3-18.5,7.5-22.9
				C385.5,330.3,370.5,337.8,370.5,343.1z"/>
		</g>
		<g>
			<path fill="#414042" d="M504.1,236.9c5.7,0,3.5,6.2,3.5,8.8v98.7c0,0.9,1.3,4,2.2,4c0,0,7-4.4,7.5-4.4c1.3,0,2.6,1.8,2.6,3.1
				c0,2.2-4.4,3.5-10.1,6.6c-0.9,0-11.5,7.9-12.3,7.9c-2.6,0-3.5-4.8-3.5-14.1c-5.7-0.4-12.8,14.5-26.9,14.5
				c-7.9,0-25.1-9.7-23.8-38.8c0.9-18.5,6.2-34.8,32.2-34.8l17.2,7c1.3,0,0.4-39.7-2.2-43.2c-2.6-3.5-11-7.9-11-10.6
				C478.5,240.9,494.4,236.9,504.1,236.9z M456.9,322c-0.4,20.7,14.1,29.1,19.8,29.1c4,0,15.9-8.8,15.9-16.7V314
				c0-10.1-14.1-18.9-15.9-18.9C467,295.1,457.3,300.4,456.9,322z"/>
		</g>
		<g>
			<path fill="#414042" d="M541.5,272.6c-9.7,1.3,4.4-8.8,4.8-12.3c0-0.9-6.6-4.8-7-6.6c-0.9-2.2,4.8-12.3,9.7-13.7
				c4-0.9,12.3,6.2,12.8,7.5C561.3,247.5,546.8,271.7,541.5,272.6z"/>
		</g>
		<g>
			<path fill="#414042" d="M593.5,285.8c11.9-0.9,15.4,9.7,6.2,14.5c-9.3,4.8-5.7-6.6-14.5-9.3c-4-0.9-14.1-0.4-15.9,8.8
				c-3.1,15.9,19.8,10.1,33.5,15.4c2.6,1.3,14.5,8.4,6.6,26.9c-4,9.3-22.9,21.6-40.1,17.6c-15-3.5-15.9-18.9-3.1-22.5
				c9.7,15,26.4,22.9,32.2,8.8c4-9.7-5.7-18.9-11-20.3c-12.3-2.6-25.6,2.2-30-8.4C548.1,296,573.2,287.2,593.5,285.8z"/>
		</g>
	</g>
	<g>
		<g>
			<path fill="#414042" d="M129.5,452h-2.6v-17.2h-24.2V452H100v-36.1h2.6v16.7h24.2v-16.7h2.6V452z"/>
		</g>
		<g>
			<path fill="#414042" d="M159.9,452.4c-10.6,0-18.9-7.9-18.9-18.5s8.4-18.5,18.9-18.5c10.6,0,18.9,7.9,18.9,18.5
				C178.9,444.5,170.5,452.4,159.9,452.4z M159.9,418c-9.3,0-15.9,7-15.9,15.9c0,8.8,7,15.9,15.9,15.9c9.3,0,15.9-7,15.9-15.9
				C175.8,425.1,168.8,418,159.9,418z"/>
		</g>
		<g>
			<path fill="#414042" d="M213.3,418h-13.7V452H197V418h-13.7v-2.2h30L213.3,418L213.3,418z"/>
		</g>
		<g>
			<path fill="#414042" d="M241.9,418h-17.2v14.5H241v2.2h-16.3v14.5h17.6v2.2h-20.3v-36.1h19.8V418z"/>
		</g>
		<g>
			<path fill="#414042" d="M254.7,449.8h18.1v2.2H252v-36.1h2.6L254.7,449.8L254.7,449.8z"/>
		</g>
		<g>
			<path fill="#414042" d="M324.7,433.9c-0.9,2.2-0.9,3.1-2.2,5.3c-1.3,2.6-1.3,3.1-3.1,5.3l7.5,7.9h-3.5l-5.3-5.7
				c-1.8,1.8-2.2,2.2-3.5,3.5c-2.6,1.8-5.7,2.6-8.4,2.6c-5.7,0-9.7-4-9.7-8.8c0-4.4,3.1-8.4,8.8-11c0-0.4-0.4-0.4-0.4-0.4
				c-3.1-3.5-4-5.3-4-7.9c0-4.4,4-7.9,8.4-7.9c4.4,0,7.9,3.1,7.9,7.5c0,2.6-1.3,4.8-3.1,6.6c-1.3,1.3-2.2,1.8-4.4,2.6l8.4,8.4
				c1.8-2.6,2.6-4.8,4-7.9H324.7L324.7,433.9z M307.1,434.8c-5.3,2.2-7.5,4.8-7.5,8.4c0,4,3.1,6.6,7,6.6c3.5,0,6.6-1.8,9.7-5.7
				L307.1,434.8z M314.6,424.2c0-3.1-2.2-5.3-5.3-5.3c-3.1,0-5.7,2.2-5.7,5.3c0,2.2,1.3,4.4,4.4,7.5
				C312.4,429.9,314.6,427.3,314.6,424.2z"/>
		</g>
		<g>
			<path fill="#414042" d="M371.4,420.7c-4-2.2-5.7-2.6-7.9-2.6c-4.4,0-7.5,3.1-7.5,7c0,2.2,1.3,4.4,3.5,5.7
				c1.3,0.4,2.6,1.3,4.4,1.8c6.6,2.2,9.3,5.3,9.3,10.1c0,5.7-4.4,10.1-10.6,10.1c-3.1,0-6.2-1.3-9.3-3.1v-3.1
				c2.6,1.8,3.5,2.2,5.3,3.1c1.3,0.4,2.6,0.9,4,0.9c4.4,0,7.9-3.1,7.9-7c0-2.2-1.3-4.4-3.1-5.7c-1.3-0.9-2.6-1.3-4.4-1.8
				c-5.3-1.8-6.6-2.6-8.4-4.8c-1.3-2.6-2.2-4.8-2.2-6.6c0-5.3,4.4-9.7,10.1-9.7c2.6,0,5.7,0.9,8.4,2.2v3.5H371.4z"/>
		</g>
		<g>
			<path fill="#414042" d="M412.4,433.9c0,6.2-0.4,8.8-2.6,11.9c-2.6,4-7,6.6-12.3,6.6s-9.7-2.2-12.3-6.6c-2.2-3.1-2.6-5.7-2.6-11.9
				v-18.1h2.6v18.5c0,4.4,0.4,7,1.8,9.7c2.2,3.5,5.7,5.7,10.6,5.7s8.4-2.2,10.1-5.7c1.3-2.6,2.2-5.3,2.2-9.7v-18.5h2.6V433.9z"/>
		</g>
		<g>
			<path fill="#414042" d="M427.8,452h-2.6v-36.1h2.6V452z"/>
		</g>
		<g>
			<path fill="#414042" d="M466.2,418h-13.7V452h-2.6V418h-13.7v-2.2h30V418z"/>
		</g>
		<g>
			<path fill="#414042" d="M494.8,418h-16.7v14.5h16.3v2.2h-16.3v14.5h17.2v2.2H475v-36.1h19.8V418z"/>
		</g>
		<g>
			<path fill="#414042" d="M522.1,420.7c-4-2.2-5.7-2.6-7.9-2.6c-4.4,0-7.5,3.1-7.5,7c0,2.2,1.3,4.4,3.5,5.7
				c1.3,0.4,2.6,1.3,4.4,1.8c6.6,2.2,9.3,5.3,9.3,10.1c0,5.7-4.4,10.1-10.6,10.1c-3.1,0-6.2-1.3-9.3-3.1v-3.1
				c2.6,1.8,3.5,2.2,5.3,3.1c1.3,0.4,2.6,0.9,4,0.9c4.4,0,7.9-3.1,7.9-7c0-2.2-1.3-4.4-3.1-5.7c-1.3-0.9-2.6-1.3-4.4-1.8
				c-5.3-1.8-6.6-2.6-8.4-4.8c-0.9-1.3-1.8-3.1-1.8-4.8c0-5.3,4.4-9.7,10.1-9.7c2.6,0,5.7,0.9,8.4,2.2L522.1,420.7L522.1,420.7z"/>
		</g>
	</g>
	<g id="_x31_SgbcD.tif_2_">
		<g>
			<g>
				<path fill="#414042" d="M253.3,535.2c-0.9,2.6-1.8,4.8-2.6,7c-0.9,2.6-3.1,4-4.8,2.6c-1.8-0.9-2.2-4-1.8-6.2
					c0.4-1.3,1.3-2.6,1.8-4c0.4-0.9,0.9-2.2,0.9-3.1c-3.1-2.6-6.2-5.3-9.7-7.5c-2.6-1.8-5.3-1.8-7.5,0.4c-1.8,1.3-3.5,3.1-5.7,4
					c-4.4,2.2-9.3-1.3-11-6.6c-2.6-8.4,1.3-14.5,7.9-15.4c4.8-0.4,9.3-0.4,14.1,0c2.6,0.4,4.8,2.2,7.5,3.5c3.1,1.8,6.2,4.4,9.7,6.6
					c0.9-3.5,2.2-7,3.1-10.1c0.4-1.3,1.3-2.6,2.2-3.1c0.9-0.4,2.6-0.4,3.5,0.4c1.3,0.9,1.8,2.6,1.3,4.8c-0.9,3.5-1.8,7-3.1,11.5
					c6.2,2.2,11.9,5.3,17.6,7c7,2.2,14.5,3.5,21.6,4.4c15,1.8,29.5-1.3,44.1-7c11-4.4,20.7-11.5,29.5-20.3c1.8-1.8,3.5-3.1,4.8-4.8
					c1.8-2.2,3.5-2.6,6.2-2.6c9.7,0,19.4,0,28.6-0.4c0.9,0,1.3,0,2.6,0c-0.9,1.8-1.8,3.1-2.6,4.4c-11.5,17.6-26,30-42.3,39.2
					c-11,6.6-22.9,11-34.8,13.7c-11.5,2.6-23.4,3.5-35.2,1.8c-11-1.8-22-5.3-32.2-11.5C262.2,540.1,257.8,537.4,253.3,535.2z"/>
			</g>
		</g>
	</g>
</g>
</svg>
